EESchema Schematic File Version 4
EELAYER 30 0
EELAYER END
$Descr A4 11693 8268
encoding utf-8
Sheet 2 3
Title ""
Date ""
Rev ""
Comp ""
Comment1 ""
Comment2 ""
Comment3 ""
Comment4 ""
$EndDescr
Wire Wire Line
	5600 1450 5500 1450
Wire Wire Line
	5500 1550 5500 1650
Wire Wire Line
	5600 1550 5500 1550
$Comp
L unix-components-kicad:TeleConnector-Long-2x1 J1
U 1 1 5EAA62FD
P 5750 1200
F 0 "J1" H 5878 1551 50  0000 L CNN
F 1 "Sys-PWR-IN" H 5878 1460 50  0000 L CNN
F 2 "Connector_JST:JST_EH_S2B-EH_1x02_P2.50mm_Horizontal" H 5750 1650 50  0001 C CNN
F 3 "" H 5750 1650 50  0001 C CNN
	1    5750 1200
	1    0    0    1   
$EndComp
$Comp
L power:GNDPWR #PWR017
U 1 1 5ED58A2D
P 5500 1650
F 0 "#PWR017" H 5500 1450 50  0001 C CNN
F 1 "GNDPWR" H 5504 1496 50  0000 C CNN
F 2 "" H 5500 1600 50  0001 C CNN
F 3 "" H 5500 1600 50  0001 C CNN
	1    5500 1650
	1    0    0    -1  
$EndComp
Wire Wire Line
	3750 2200 3750 2350
Wire Wire Line
	2750 2350 2250 2350
Connection ~ 2250 2350
Wire Wire Line
	2250 2200 2250 2350
$Comp
L power:GND #PWR06
U 1 1 5EC37BBE
P 2250 2700
F 0 "#PWR06" H 2250 2450 50  0001 C CNN
F 1 "GND" H 2255 2527 50  0000 C CNN
F 2 "" H 2250 2700 50  0001 C CNN
F 3 "" H 2250 2700 50  0001 C CNN
	1    2250 2700
	1    0    0    -1  
$EndComp
Connection ~ 2750 2350
Wire Wire Line
	2750 2350 2750 2450
$Comp
L power:GND #PWR08
U 1 1 5EC02F62
P 2750 2700
F 0 "#PWR08" H 2750 2450 50  0001 C CNN
F 1 "GND" H 2755 2527 50  0000 C CNN
F 2 "" H 2750 2700 50  0001 C CNN
F 3 "" H 2750 2700 50  0001 C CNN
	1    2750 2700
	1    0    0    -1  
$EndComp
$Comp
L Device:C_Small C2
U 1 1 5EC0282E
P 2750 2550
F 0 "C2" H 2550 2650 50  0000 L CNN
F 1 "330nF" H 2800 2650 50  0000 L CNN
F 2 "Capacitor_SMD:C_0805_2012Metric" H 2750 2550 50  0001 C CNN
F 3 "~" H 2750 2550 50  0001 C CNN
	1    2750 2550
	1    0    0    -1  
$EndComp
Wire Wire Line
	3650 2350 3750 2350
$Comp
L power:GND #PWR09
U 1 1 5EB42C24
P 3350 2700
F 0 "#PWR09" H 3350 2450 50  0001 C CNN
F 1 "GND" H 3355 2527 50  0000 C CNN
F 2 "" H 3350 2700 50  0001 C CNN
F 3 "" H 3350 2700 50  0001 C CNN
	1    3350 2700
	1    0    0    -1  
$EndComp
Wire Wire Line
	2750 2350 2750 2200
Wire Wire Line
	2750 2350 3050 2350
$Comp
L power:+12V #PWR07
U 1 1 5EB3E722
P 2750 2200
F 0 "#PWR07" H 2750 2050 50  0001 C CNN
F 1 "+12V" H 2765 2373 50  0000 C CNN
F 2 "" H 2750 2200 50  0001 C CNN
F 3 "" H 2750 2200 50  0001 C CNN
	1    2750 2200
	1    0    0    -1  
$EndComp
$Comp
L power:+5V #PWR010
U 1 1 5EB44C87
P 3750 2200
F 0 "#PWR010" H 3750 2050 50  0001 C CNN
F 1 "+5V" H 3765 2373 50  0000 C CNN
F 2 "" H 3750 2200 50  0001 C CNN
F 3 "" H 3750 2200 50  0001 C CNN
	1    3750 2200
	1    0    0    -1  
$EndComp
$Comp
L power:+12V #PWR05
U 1 1 5EC367BA
P 2250 2200
F 0 "#PWR05" H 2250 2050 50  0001 C CNN
F 1 "+12V" H 2265 2373 50  0000 C CNN
F 2 "" H 2250 2200 50  0001 C CNN
F 3 "" H 2250 2200 50  0001 C CNN
	1    2250 2200
	1    0    0    -1  
$EndComp
$Comp
L power:GND #PWR025
U 1 1 5EBECCC6
P 7700 5450
F 0 "#PWR025" H 7700 5200 50  0001 C CNN
F 1 "GND" H 7705 5277 50  0000 C CNN
F 2 "" H 7700 5450 50  0001 C CNN
F 3 "" H 7700 5450 50  0001 C CNN
	1    7700 5450
	1    0    0    -1  
$EndComp
Wire Wire Line
	6100 3650 6550 3650
NoConn ~ 4900 3850
NoConn ~ 4900 3650
Wire Wire Line
	4850 4350 4850 4400
$Comp
L power:GND #PWR014
U 1 1 5EDC045C
P 4850 4400
F 0 "#PWR014" H 4850 4150 50  0001 C CNN
F 1 "GND" H 4700 4300 50  0000 C CNN
F 2 "" H 4850 4400 50  0001 C CNN
F 3 "" H 4850 4400 50  0001 C CNN
	1    4850 4400
	1    0    0    -1  
$EndComp
Wire Wire Line
	4850 4350 4900 4350
$Comp
L power:GND #PWR023
U 1 1 5ECE6FAE
P 6350 4700
F 0 "#PWR023" H 6350 4450 50  0001 C CNN
F 1 "GND" H 6500 4600 50  0000 C CNN
F 2 "" H 6350 4700 50  0001 C CNN
F 3 "" H 6350 4700 50  0001 C CNN
	1    6350 4700
	1    0    0    -1  
$EndComp
Wire Wire Line
	6100 4250 6200 4250
Wire Wire Line
	6200 4550 6200 4650
Wire Wire Line
	6100 4550 6200 4550
Wire Wire Line
	6200 4650 6200 4850
Connection ~ 6200 4650
Wire Wire Line
	6100 4650 6200 4650
Wire Wire Line
	6100 4850 6200 4850
Wire Wire Line
	6200 4150 6200 4250
Wire Wire Line
	6100 4150 6200 4150
Connection ~ 6200 5550
Wire Wire Line
	6200 5550 6200 5700
$Comp
L power:GND #PWR021
U 1 1 5ECD5C4B
P 6200 5700
F 0 "#PWR021" H 6200 5450 50  0001 C CNN
F 1 "GND" H 6205 5527 50  0000 C CNN
F 2 "" H 6200 5700 50  0001 C CNN
F 3 "" H 6200 5700 50  0001 C CNN
	1    6200 5700
	1    0    0    -1  
$EndComp
Wire Wire Line
	6100 5450 6200 5450
Wire Wire Line
	6200 5550 6100 5550
$Comp
L Device:C_Small C5
U 1 1 5EADFD39
P 5350 2800
F 0 "C5" V 5450 2750 50  0000 L CNN
F 1 "100nF" V 5400 2850 50  0000 L CNN
F 2 "Capacitor_SMD:C_1206_3216Metric" H 5350 2800 50  0001 C CNN
F 3 "~" H 5350 2800 50  0001 C CNN
	1    5350 2800
	0    -1   -1   0   
$EndComp
$Comp
L power:GND #PWR015
U 1 1 5EB0BBE6
P 4850 2700
F 0 "#PWR015" H 4850 2450 50  0001 C CNN
F 1 "GND" H 4700 2600 50  0000 C CNN
F 2 "" H 4850 2700 50  0001 C CNN
F 3 "" H 4850 2700 50  0001 C CNN
	1    4850 2700
	1    0    0    -1  
$EndComp
Wire Wire Line
	5500 2800 5450 2800
Wire Wire Line
	5500 2800 5500 3150
$Comp
L power:+5V #PWR018
U 1 1 5EB7C314
P 5500 2300
F 0 "#PWR018" H 5500 2150 50  0001 C CNN
F 1 "+5V" H 5515 2473 50  0000 C CNN
F 2 "" H 5500 2300 50  0001 C CNN
F 3 "" H 5500 2300 50  0001 C CNN
	1    5500 2300
	1    0    0    -1  
$EndComp
Connection ~ 5500 2800
$Comp
L power:GND #PWR013
U 1 1 5EB99B21
P 4350 4100
F 0 "#PWR013" H 4350 3850 50  0001 C CNN
F 1 "GND" H 4200 4000 50  0000 C CNN
F 2 "" H 4350 4100 50  0001 C CNN
F 3 "" H 4350 4100 50  0001 C CNN
	1    4350 4100
	1    0    0    -1  
$EndComp
Wire Wire Line
	4350 4100 4350 4050
Wire Wire Line
	4350 4050 4550 4050
Wire Wire Line
	4750 4050 4900 4050
$Comp
L power:GND #PWR019
U 1 1 5EBA0F3B
P 5500 6250
F 0 "#PWR019" H 5500 6000 50  0001 C CNN
F 1 "GND" H 5350 6150 50  0000 C CNN
F 2 "" H 5500 6250 50  0001 C CNN
F 3 "" H 5500 6250 50  0001 C CNN
	1    5500 6250
	1    0    0    -1  
$EndComp
Wire Wire Line
	5500 5950 5500 6250
$Comp
L Device:LED D1
U 1 1 5EBF02F7
P 8550 2000
F 0 "D1" H 8543 1745 50  0000 C CNN
F 1 "LED" H 8543 1836 50  0000 C CNN
F 2 "LED_SMD:LED_PLCC-2" H 8550 2000 50  0001 C CNN
F 3 "~" H 8550 2000 50  0001 C CNN
	1    8550 2000
	-1   0    0    1   
$EndComp
$Comp
L Device:R_Small_US R3
U 1 1 5EC0EC77
P 8700 2200
F 0 "R3" H 8650 2150 50  0000 R CNN
F 1 "100R" H 8650 2250 50  0000 R CNN
F 2 "Resistor_SMD:R_1210_3225Metric" H 8700 2200 50  0001 C CNN
F 3 "~" H 8700 2200 50  0001 C CNN
	1    8700 2200
	-1   0    0    1   
$EndComp
$Comp
L Device:R_Small_US R4
U 1 1 5EC127E7
P 8250 2000
F 0 "R4" H 8200 1950 50  0000 R CNN
F 1 "33R" H 8200 2050 50  0000 R CNN
F 2 "Resistor_SMD:R_0805_2012Metric" H 8250 2000 50  0001 C CNN
F 3 "~" H 8250 2000 50  0001 C CNN
	1    8250 2000
	0    1    1    0   
$EndComp
$Comp
L power:GND #PWR027
U 1 1 5EC16A61
P 8700 2350
F 0 "#PWR027" H 8700 2100 50  0001 C CNN
F 1 "GND" H 8550 2250 50  0000 C CNN
F 2 "" H 8700 2350 50  0001 C CNN
F 3 "" H 8700 2350 50  0001 C CNN
	1    8700 2350
	1    0    0    -1  
$EndComp
Text Label 7750 2000 2    50   ~ 0
led_down
$Comp
L Connector:Conn_01x05_Female J3
U 1 1 5EB61CC0
P 8050 5150
F 0 "J3" H 8078 5176 50  0000 L CNN
F 1 "Prog" H 8078 5085 50  0000 L CNN
F 2 "Connector_JST:JST_EH_S5B-EH_1x05_P2.50mm_Horizontal" H 8050 5150 50  0001 C CNN
F 3 "~" H 8050 5150 50  0001 C CNN
	1    8050 5150
	1    0    0    1   
$EndComp
Wire Wire Line
	5600 5950 5600 6250
$Comp
L power:GND #PWR020
U 1 1 5EBA0689
P 5600 6250
F 0 "#PWR020" H 5600 6000 50  0001 C CNN
F 1 "GND" H 5750 6150 50  0000 C CNN
F 2 "" H 5600 6250 50  0001 C CNN
F 3 "" H 5600 6250 50  0001 C CNN
	1    5600 6250
	1    0    0    -1  
$EndComp
Text Label 7750 5150 2    50   ~ 0
sck
Text Label 7750 5050 2    50   ~ 0
miso
Text Label 7750 4950 2    50   ~ 0
mosi
Wire Wire Line
	7750 5250 7850 5250
Wire Wire Line
	7750 4950 7850 4950
Wire Wire Line
	7750 5050 7850 5050
Wire Wire Line
	7750 5150 7850 5150
Text Label 7750 5250 2    50   ~ 0
reset
Wire Wire Line
	7700 5450 7700 5350
Wire Wire Line
	7700 5350 7850 5350
Text Label 6200 3950 0    50   ~ 0
sck
Text Label 6200 3850 0    50   ~ 0
miso
Text Label 6200 3750 0    50   ~ 0
mosi
Wire Wire Line
	6200 3750 6100 3750
Wire Wire Line
	6200 3850 6100 3850
Wire Wire Line
	6200 3950 6100 3950
$Comp
L Device:R_Small_US R1
U 1 1 5EBF8EF6
P 4250 3250
F 0 "R1" H 4200 3200 50  0000 R CNN
F 1 "10K" H 4200 3300 50  0000 R CNN
F 2 "Resistor_SMD:R_0805_2012Metric" H 4250 3250 50  0001 C CNN
F 3 "~" H 4250 3250 50  0001 C CNN
	1    4250 3250
	-1   0    0    1   
$EndComp
Text Label 4150 3450 2    50   ~ 0
reset
$Comp
L Device:LED D2
U 1 1 5EC43BE0
P 9400 1650
F 0 "D2" H 9393 1395 50  0000 C CNN
F 1 "LED" H 9393 1486 50  0000 C CNN
F 2 "LED_SMD:LED_PLCC-2" H 9400 1650 50  0001 C CNN
F 3 "~" H 9400 1650 50  0001 C CNN
	1    9400 1650
	1    0    0    -1  
$EndComp
$Comp
L Device:R_Small_US R5
U 1 1 5EC43BEA
P 9600 1800
F 0 "R5" H 9550 1750 50  0000 R CNN
F 1 "100R" H 9550 1850 50  0000 R CNN
F 2 "Resistor_SMD:R_1210_3225Metric" H 9600 1800 50  0001 C CNN
F 3 "~" H 9600 1800 50  0001 C CNN
	1    9600 1800
	-1   0    0    1   
$EndComp
$Comp
L Device:R_Small_US R6
U 1 1 5EC43BF4
P 9600 2050
F 0 "R6" H 9550 2000 50  0000 R CNN
F 1 "33R" H 9550 2100 50  0000 R CNN
F 2 "Resistor_SMD:R_0805_2012Metric" H 9600 2050 50  0001 C CNN
F 3 "~" H 9600 2050 50  0001 C CNN
	1    9600 2050
	-1   0    0    1   
$EndComp
Wire Wire Line
	9600 1950 9600 1900
Wire Wire Line
	9600 1700 9600 1650
Wire Wire Line
	9600 1650 9550 1650
Text Label 9350 2250 2    50   ~ 0
led_up
Text Label 6350 5150 0    50   ~ 0
button
$Comp
L power:VCC #PWR016
U 1 1 5EBB56E8
P 5500 1300
F 0 "#PWR016" H 5500 1150 50  0001 C CNN
F 1 "VCC" H 5517 1473 50  0000 C CNN
F 2 "" H 5500 1300 50  0001 C CNN
F 3 "" H 5500 1300 50  0001 C CNN
	1    5500 1300
	1    0    0    -1  
$EndComp
Wire Wire Line
	5500 1300 5500 1450
Wire Wire Line
	5600 3150 5600 2800
Wire Wire Line
	5600 2800 5500 2800
$Comp
L power:GND #PWR022
U 1 1 5EBB21BE
P 6300 3450
F 0 "#PWR022" H 6300 3200 50  0001 C CNN
F 1 "GND" H 6400 3450 50  0000 C CNN
F 2 "" H 6300 3450 50  0001 C CNN
F 3 "" H 6300 3450 50  0001 C CNN
	1    6300 3450
	0    -1   -1   0   
$EndComp
Wire Wire Line
	6100 3450 6300 3450
$Comp
L Connector:Conn_01x02_Female J2
U 1 1 5EB3BF15
P 9250 4150
F 0 "J2" H 9278 4126 50  0000 L CNN
F 1 "Button" H 9278 4035 50  0000 L CNN
F 2 "Connector_JST:JST_EH_S2B-EH_1x02_P2.50mm_Horizontal" H 9250 4150 50  0001 C CNN
F 3 "~" H 9250 4150 50  0001 C CNN
	1    9250 4150
	1    0    0    1   
$EndComp
$Comp
L power:GND #PWR026
U 1 1 5EB725F5
P 9000 4200
F 0 "#PWR026" H 9000 3950 50  0001 C CNN
F 1 "GND" H 9150 4100 50  0000 C CNN
F 2 "" H 9000 4200 50  0001 C CNN
F 3 "" H 9000 4200 50  0001 C CNN
	1    9000 4200
	1    0    0    -1  
$EndComp
Wire Wire Line
	9000 4150 9000 4200
Wire Wire Line
	9000 4150 9050 4150
Text Label 8250 4050 2    50   ~ 0
button
Wire Wire Line
	2750 2700 2750 2650
Wire Wire Line
	3350 2700 3350 2650
Wire Wire Line
	2250 2550 2250 2700
$Comp
L Device:C_Small C4
U 1 1 5EB98B93
P 4650 4050
F 0 "C4" V 4800 4050 50  0000 L CNN
F 1 "10nF" V 4700 4100 50  0000 L CNN
F 2 "Capacitor_SMD:C_0805_2012Metric" H 4650 4050 50  0001 C CNN
F 3 "~" H 4650 4050 50  0001 C CNN
	1    4650 4050
	0    -1   -1   0   
$EndComp
$Comp
L Device:CP1_Small C1
U 1 1 5EC2D8A0
P 2250 2450
F 0 "C1" H 2000 2500 50  0000 L CNN
F 1 "10uF" H 2000 2350 50  0000 L CNN
F 2 "Capacitor_SMD:CP_Elec_5x5.3" H 2250 2450 50  0001 C CNN
F 3 "~" H 2250 2450 50  0001 C CNN
	1    2250 2450
	1    0    0    -1  
$EndComp
Wire Wire Line
	6200 4650 6350 4650
Wire Wire Line
	6350 4700 6350 4650
$Comp
L power:GND #PWR0105
U 1 1 5EC9F1D5
P 6350 4150
F 0 "#PWR0105" H 6350 3900 50  0001 C CNN
F 1 "GND" H 6400 4000 50  0000 C CNN
F 2 "" H 6350 4150 50  0001 C CNN
F 3 "" H 6350 4150 50  0001 C CNN
	1    6350 4150
	0    -1   -1   0   
$EndComp
Wire Wire Line
	6200 4150 6350 4150
Connection ~ 6200 4150
Wire Wire Line
	8700 2100 8700 2000
Wire Wire Line
	8400 2000 8350 2000
Wire Wire Line
	8700 2350 8700 2300
$Comp
L Device:R_Small_US R11
U 1 1 5EB43869
P 8750 4050
F 0 "R11" V 8650 4100 50  0000 C CNN
F 1 "1K" V 8650 3900 50  0000 C CNN
F 2 "Resistor_SMD:R_0603_1608Metric" H 8750 4050 50  0001 C CNN
F 3 "~" H 8750 4050 50  0001 C CNN
	1    8750 4050
	0    1    1    0   
$EndComp
Wire Wire Line
	8850 4050 9050 4050
$Comp
L Device:C_Small C10
U 1 1 5EB46655
P 8550 4250
F 0 "C10" V 8700 4200 50  0000 L CNN
F 1 "330nF" V 8400 4150 50  0000 L CNN
F 2 "Capacitor_SMD:C_0805_2012Metric" H 8550 4250 50  0001 C CNN
F 3 "~" H 8550 4250 50  0001 C CNN
	1    8550 4250
	1    0    0    -1  
$EndComp
$Comp
L power:GND #PWR029
U 1 1 5EB473CC
P 8550 4400
F 0 "#PWR029" H 8550 4150 50  0001 C CNN
F 1 "GND" H 8700 4300 50  0000 C CNN
F 2 "" H 8550 4400 50  0001 C CNN
F 3 "" H 8550 4400 50  0001 C CNN
	1    8550 4400
	1    0    0    -1  
$EndComp
Wire Wire Line
	8550 4400 8550 4350
Wire Wire Line
	8550 4150 8550 4050
Wire Wire Line
	8550 4050 8650 4050
Wire Wire Line
	8550 4050 8250 4050
Connection ~ 8550 4050
Text Notes 8350 3850 0    50   ~ 0
low pass filter\nFc=500Hz
Text HLabel 7200 3550 2    50   Input ~ 0
pwm_out
$Comp
L Device:C_Small C11
U 1 1 5EBC6845
P 5350 2500
F 0 "C11" V 5450 2450 50  0000 L CNN
F 1 "330nF" V 5400 2550 50  0000 L CNN
F 2 "Capacitor_SMD:C_0805_2012Metric" H 5350 2500 50  0001 C CNN
F 3 "~" H 5350 2500 50  0001 C CNN
	1    5350 2500
	0    -1   -1   0   
$EndComp
Wire Wire Line
	5450 2500 5500 2500
Wire Wire Line
	5500 2500 5500 2800
Wire Wire Line
	5500 2500 5500 2300
Connection ~ 5500 2500
Wire Wire Line
	5250 2500 5000 2500
Wire Wire Line
	5000 2500 5000 2650
Wire Wire Line
	4850 2650 5000 2650
Wire Wire Line
	5000 2800 5250 2800
Connection ~ 5000 2650
Wire Wire Line
	5000 2650 5000 2800
Wire Wire Line
	4850 2700 4850 2650
$Comp
L Device:C_Small C12
U 1 1 5EBE38C6
P 7950 2250
F 0 "C12" H 8000 2150 50  0000 L CNN
F 1 "10nF" H 8000 2350 50  0000 L CNN
F 2 "Capacitor_SMD:C_0805_2012Metric" H 7950 2250 50  0001 C CNN
F 3 "~" H 7950 2250 50  0001 C CNN
	1    7950 2250
	1    0    0    -1  
$EndComp
$Comp
L Device:C_Small C13
U 1 1 5EC06083
P 9600 2450
F 0 "C13" H 9650 2350 50  0000 L CNN
F 1 "10nF" H 9650 2550 50  0000 L CNN
F 2 "Capacitor_SMD:C_0805_2012Metric" H 9600 2450 50  0001 C CNN
F 3 "~" H 9600 2450 50  0001 C CNN
	1    9600 2450
	1    0    0    -1  
$EndComp
Wire Wire Line
	6100 3550 7200 3550
$Comp
L power:GND #PWR0108
U 1 1 5EB486B4
P 4750 4300
F 0 "#PWR0108" H 4750 4050 50  0001 C CNN
F 1 "GND" H 4600 4200 50  0000 C CNN
F 2 "" H 4750 4300 50  0001 C CNN
F 3 "" H 4750 4300 50  0001 C CNN
	1    4750 4300
	1    0    0    -1  
$EndComp
Wire Wire Line
	4750 4300 4750 4250
Wire Wire Line
	4750 4250 4900 4250
Wire Wire Line
	7950 2150 7950 2000
Wire Wire Line
	7950 2000 8150 2000
$Comp
L power:GND #PWR0107
U 1 1 5EBB106A
P 7950 2400
F 0 "#PWR0107" H 7950 2150 50  0001 C CNN
F 1 "GND" H 7955 2227 50  0000 C CNN
F 2 "" H 7950 2400 50  0001 C CNN
F 3 "" H 7950 2400 50  0001 C CNN
	1    7950 2400
	1    0    0    -1  
$EndComp
Wire Wire Line
	7950 2400 7950 2350
Wire Wire Line
	7950 2000 7750 2000
Connection ~ 7950 2000
$Comp
L power:GND #PWR0109
U 1 1 5EBCE639
P 9600 2600
F 0 "#PWR0109" H 9600 2350 50  0001 C CNN
F 1 "GND" H 9700 2450 50  0000 C CNN
F 2 "" H 9600 2600 50  0001 C CNN
F 3 "" H 9600 2600 50  0001 C CNN
	1    9600 2600
	1    0    0    -1  
$EndComp
Wire Wire Line
	9600 2600 9600 2550
Wire Wire Line
	9600 2150 9600 2250
Wire Wire Line
	9600 2250 9350 2250
Connection ~ 9600 2250
Wire Wire Line
	9600 2250 9600 2350
Text Label 6350 5250 0    50   ~ 0
led_up
Text Label 6350 5050 0    50   ~ 0
led_down
Wire Wire Line
	6100 5350 6200 5350
Wire Wire Line
	6100 4350 6200 4350
Wire Wire Line
	6200 4350 6200 4450
Connection ~ 6200 4550
Wire Wire Line
	6100 4450 6200 4450
Connection ~ 6200 4450
Wire Wire Line
	6200 4450 6200 4550
$Comp
L Regulator_Linear:L78L05_SOT89 U1
U 1 1 5EA95B14
P 3350 2350
F 0 "U1" H 3350 2592 50  0000 C CNN
F 1 "L78L05_SOT89" H 3350 2501 50  0000 C CNN
F 2 "Package_TO_SOT_SMD:SOT-89-3" H 3350 2550 50  0001 C CIN
F 3 "http://www.st.com/content/ccc/resource/technical/document/datasheet/15/55/e5/aa/23/5b/43/fd/CD00000446.pdf/files/CD00000446.pdf/jcr:content/translations/en.CD00000446.pdf" H 3350 2300 50  0001 C CNN
	1    3350 2350
	1    0    0    -1  
$EndComp
Wire Wire Line
	6100 5050 6350 5050
Wire Wire Line
	6100 5250 6350 5250
Wire Wire Line
	6200 5350 6200 5450
Connection ~ 6200 5450
Wire Wire Line
	6200 5450 6200 5550
Text Label 6550 3650 0    50   ~ 0
vcc-passthrough
Wire Wire Line
	6100 5150 6350 5150
$Comp
L MCU_Microchip_ATmega:ATmega8A-AU U2
U 1 1 5EA88F7A
P 5500 4550
F 0 "U2" H 4700 6000 50  0000 C CNN
F 1 "ATmega8A-AU" H 4850 5900 50  0000 C CNN
F 2 "Package_QFP:TQFP-32_7x7mm_P0.8mm" H 5500 4550 50  0001 C CIN
F 3 "http://ww1.microchip.com/downloads/en/DeviceDoc/Microchip%208bit%20mcu%20AVR%20ATmega8A%20data%20sheet%2040001974A.pdf" H 5500 4550 50  0001 C CNN
	1    5500 4550
	1    0    0    -1  
$EndComp
Text Label 5500 3050 2    50   ~ 0
vcc-passthrough
$Comp
L power:GND #PWR011
U 1 1 5EBF6185
P 9100 1700
F 0 "#PWR011" H 9100 1450 50  0001 C CNN
F 1 "GND" H 9200 1550 50  0000 C CNN
F 2 "" H 9100 1700 50  0001 C CNN
F 3 "" H 9100 1700 50  0001 C CNN
	1    9100 1700
	1    0    0    -1  
$EndComp
Wire Wire Line
	9100 1700 9100 1650
Wire Wire Line
	9100 1650 9250 1650
Wire Wire Line
	4150 3450 4250 3450
Wire Wire Line
	4250 3350 4250 3450
Connection ~ 4250 3450
Wire Wire Line
	4250 3450 4900 3450
$Comp
L power:+5V #PWR0104
U 1 1 5EB78859
P 4250 3050
F 0 "#PWR0104" H 4250 2900 50  0001 C CNN
F 1 "+5V" H 4265 3223 50  0000 C CNN
F 2 "" H 4250 3050 50  0001 C CNN
F 3 "" H 4250 3050 50  0001 C CNN
	1    4250 3050
	1    0    0    -1  
$EndComp
Wire Wire Line
	4250 3150 4250 3050
Text Label 6350 4950 0    50   ~ 0
vcc-passthrough
Wire Wire Line
	6100 4950 6350 4950
$EndSCHEMATC
