EESchema Schematic File Version 4
EELAYER 30 0
EELAYER END
$Descr A4 11693 8268
encoding utf-8
Sheet 3 3
Title ""
Date ""
Rev ""
Comp ""
Comment1 ""
Comment2 ""
Comment3 ""
Comment4 ""
$EndDescr
NoConn ~ 5000 3500
$Comp
L Device:CP1_Small C6
U 1 1 5ECF69EE
P 2650 2550
F 0 "C6" H 2400 2600 50  0000 L CNN
F 1 "100uF" H 2750 2550 50  0000 L CNN
F 2 "Capacitor_SMD:C_Elec_6.3x5.4" H 2650 2550 50  0001 C CNN
F 3 "~" H 2650 2550 50  0001 C CNN
	1    2650 2550
	1    0    0    -1  
$EndComp
$Comp
L power:VCC #PWR030
U 1 1 5ECFEAED
P 2650 2400
F 0 "#PWR030" H 2650 2250 50  0001 C CNN
F 1 "VCC" H 2667 2573 50  0000 C CNN
F 2 "" H 2650 2400 50  0001 C CNN
F 3 "" H 2650 2400 50  0001 C CNN
	1    2650 2400
	1    0    0    -1  
$EndComp
Wire Wire Line
	2650 2400 2650 2450
Wire Wire Line
	2650 2700 2650 2650
Wire Wire Line
	4800 3850 4750 3850
$Comp
L power:VCC #PWR036
U 1 1 5EBBB6DC
P 5000 2900
F 0 "#PWR036" H 5000 2750 50  0001 C CNN
F 1 "VCC" H 5017 3073 50  0000 C CNN
F 2 "" H 5000 2900 50  0001 C CNN
F 3 "" H 5000 2900 50  0001 C CNN
	1    5000 2900
	1    0    0    -1  
$EndComp
$Comp
L Device:D_x2_KCom_AKA D3
U 1 1 5EBACA86
P 5000 3200
F 0 "D3" V 4954 3278 50  0000 L CNN
F 1 "D_x2_KCom_AKA" V 5045 3278 50  0000 L CNN
F 2 "Package_TO_SOT_THT:TO-220-3_Horizontal_TabDown" H 5000 3200 50  0001 C CNN
F 3 "~" H 5000 3200 50  0001 C CNN
	1    5000 3200
	0    1    1    0   
$EndComp
Connection ~ 4750 3850
Wire Wire Line
	4750 4150 4750 3850
Wire Wire Line
	4750 4150 4900 4150
Wire Wire Line
	4900 4350 5700 4350
Connection ~ 4900 4350
$Comp
L Device:C_Small C9
U 1 1 5EB90FE4
P 4900 4250
F 0 "C9" V 4800 4100 50  0000 L CNN
F 1 "10nF" V 4800 4200 50  0000 L CNN
F 2 "Capacitor_SMD:C_0805_2012Metric" H 4900 4250 50  0001 C CNN
F 3 "~" H 4900 4250 50  0001 C CNN
	1    4900 4250
	-1   0    0    1   
$EndComp
Wire Wire Line
	5700 4350 5700 4200
Wire Wire Line
	8350 4100 8450 4100
Wire Wire Line
	8350 4150 8350 4100
$Comp
L power:GNDPWR #PWR037
U 1 1 5ED31339
P 8350 4150
F 0 "#PWR037" H 8350 3950 50  0001 C CNN
F 1 "GNDPWR" H 8354 3996 50  0000 C CNN
F 2 "" H 8350 4100 50  0001 C CNN
F 3 "" H 8350 4100 50  0001 C CNN
	1    8350 4150
	1    0    0    -1  
$EndComp
Wire Wire Line
	8350 4000 8450 4000
Text Label 8350 4000 2    50   ~ 0
motor_out
Wire Wire Line
	3600 3300 3900 3300
Wire Wire Line
	3600 3350 3600 3300
Connection ~ 4300 3300
Wire Wire Line
	4100 3300 4300 3300
$Comp
L Device:C_Small C7
U 1 1 5ECCC231
P 4000 3300
F 0 "C7" V 3850 3250 50  0000 L CNN
F 1 "100nF" V 3900 3000 50  0000 L CNN
F 2 "Capacitor_SMD:C_0805_2012Metric" H 4000 3300 50  0001 C CNN
F 3 "~" H 4000 3300 50  0001 C CNN
	1    4000 3300
	0    1    1    0   
$EndComp
Text Label 5950 3800 2    50   ~ 0
high_gate
Text Label 4950 3850 0    50   ~ 0
high_gate
Wire Wire Line
	6600 4200 6700 4200
Text Label 6700 4200 0    50   ~ 0
motor_out
Wire Wire Line
	4300 3150 4300 3300
$Comp
L power:VCC #PWR034
U 1 1 5EB3DABC
P 4300 3150
F 0 "#PWR034" H 4300 3000 50  0001 C CNN
F 1 "VCC" H 4317 3323 50  0000 C CNN
F 2 "" H 4300 3150 50  0001 C CNN
F 3 "" H 4300 3150 50  0001 C CNN
	1    4300 3150
	1    0    0    -1  
$EndComp
Connection ~ 6600 4200
Wire Wire Line
	6600 4000 6600 4200
Wire Wire Line
	4600 3850 4750 3850
Wire Wire Line
	6250 4600 6300 4600
Wire Wire Line
	6250 3800 6300 3800
$Comp
L Device:R_Small_US R10
U 1 1 5EAFCB52
P 6150 4600
F 0 "R10" V 6250 4650 50  0000 R CNN
F 1 "33R" V 6050 4700 50  0000 R CNN
F 2 "Resistor_SMD:R_0805_2012Metric" H 6150 4600 50  0001 C CNN
F 3 "~" H 6150 4600 50  0001 C CNN
	1    6150 4600
	0    -1   -1   0   
$EndComp
$Comp
L Device:R_Small_US R9
U 1 1 5EAF96FB
P 6150 3800
F 0 "R9" V 6250 3850 50  0000 R CNN
F 1 "33R" V 6050 3900 50  0000 R CNN
F 2 "Resistor_SMD:R_0805_2012Metric" H 6150 3800 50  0001 C CNN
F 3 "~" H 6150 3800 50  0001 C CNN
	1    6150 3800
	0    -1   -1   0   
$EndComp
$Comp
L PHD45N03LTA:PHD45N03LTA Q3
U 1 1 5EAE9E60
P 6600 4500
F 0 "Q3" H 6753 4546 50  0000 L CNN
F 1 "PHD45N03LTA" H 6753 4455 50  0000 L CNN
F 2 "SnapEDA:TO228P1000X238-3N" H 6600 4500 50  0001 L BNN
F 3 "NXP" H 6600 4500 50  0001 L BNN
	1    6600 4500
	1    0    0    -1  
$EndComp
$Comp
L PHD45N03LTA:PHD45N03LTA Q2
U 1 1 5EAE6BD1
P 6600 3700
F 0 "Q2" H 6753 3746 50  0000 L CNN
F 1 "PHD45N03LTA" H 6753 3655 50  0000 L CNN
F 2 "SnapEDA:TO228P1000X238-3N" H 6600 3700 50  0001 L BNN
F 3 "NXP" H 6600 3700 50  0001 L BNN
	1    6600 3700
	1    0    0    -1  
$EndComp
Text Label 5950 4600 2    50   ~ 0
low_gate
Connection ~ 4750 4350
Wire Wire Line
	4750 4350 4900 4350
Connection ~ 4750 4150
Wire Wire Line
	4300 4650 4300 4850
Wire Wire Line
	4600 4350 4750 4350
$Comp
L Device:C_Small C8
U 1 1 5EB9098B
P 4750 4250
F 0 "C8" V 4850 4100 50  0000 L CNN
F 1 "15nF" V 4850 4200 50  0000 L CNN
F 2 "Capacitor_SMD:C_1206_3216Metric" H 4750 4250 50  0001 C CNN
F 3 "~" H 4750 4250 50  0001 C CNN
	1    4750 4250
	-1   0    0    1   
$EndComp
$Comp
L Connector:Conn_01x02_Female J4
U 1 1 5ED253C2
P 8650 4000
F 0 "J4" H 8678 3976 50  0000 L CNN
F 1 "Motor_OUT" H 8678 3885 50  0000 L CNN
F 2 "Connector_JST:JST_EH_S2B-EH_1x02_P2.50mm_Horizontal" H 8650 4000 50  0001 C CNN
F 3 "~" H 8650 4000 50  0001 C CNN
	1    8650 4000
	1    0    0    -1  
$EndComp
Text Label 4900 4600 0    50   ~ 0
low_gate
Wire Wire Line
	4800 3200 4800 3850
Wire Wire Line
	5700 4200 6600 4200
Wire Wire Line
	5950 3800 6050 3800
Wire Wire Line
	5950 4600 6050 4600
$Comp
L Driver_FET:IR2111 U3
U 1 1 5EADEC3C
P 4300 4150
F 0 "U3" H 4000 4350 50  0000 C CNN
F 1 "IR2111" H 3950 4450 50  0000 C CNN
F 2 "Package_DIP:DIP-8_W10.16mm_LongPads" H 4300 4150 50  0001 C CIN
F 3 "https://www.infineon.com/dgdl/ir2111.pdf?fileId=5546d462533600a4015355c810e51682" H 4300 4150 50  0001 C CNN
	1    4300 4150
	1    0    0    -1  
$EndComp
Wire Wire Line
	4300 3300 4300 3650
Wire Wire Line
	4600 4450 4750 4450
Wire Wire Line
	4950 3950 4950 3850
Wire Wire Line
	4600 3950 4950 3950
Wire Wire Line
	4750 4600 4900 4600
Wire Wire Line
	4750 4450 4750 4600
$Comp
L power:GNDPWR #PWR039
U 1 1 5ECBB6E3
P 6600 4900
F 0 "#PWR039" H 6600 4700 50  0001 C CNN
F 1 "GNDPWR" H 6604 4746 50  0000 C CNN
F 2 "" H 6600 4850 50  0001 C CNN
F 3 "" H 6600 4850 50  0001 C CNN
	1    6600 4900
	1    0    0    -1  
$EndComp
Wire Wire Line
	6600 4800 6600 4900
Wire Wire Line
	6600 3250 6600 3400
$Comp
L power:GNDPWR #PWR0101
U 1 1 5EBD5459
P 4300 4850
F 0 "#PWR0101" H 4300 4650 50  0001 C CNN
F 1 "GNDPWR" H 4304 4696 50  0000 C CNN
F 2 "" H 4300 4800 50  0001 C CNN
F 3 "" H 4300 4800 50  0001 C CNN
	1    4300 4850
	1    0    0    -1  
$EndComp
$Comp
L power:GNDPWR #PWR0102
U 1 1 5EC6697D
P 2650 2700
F 0 "#PWR0102" H 2650 2500 50  0001 C CNN
F 1 "GNDPWR" H 2654 2546 50  0000 C CNN
F 2 "" H 2650 2650 50  0001 C CNN
F 3 "" H 2650 2650 50  0001 C CNN
	1    2650 2700
	1    0    0    -1  
$EndComp
$Comp
L power:GNDPWR #PWR0103
U 1 1 5EC76AB5
P 3600 3350
F 0 "#PWR0103" H 3600 3150 50  0001 C CNN
F 1 "GNDPWR" H 3604 3196 50  0000 C CNN
F 2 "" H 3600 3300 50  0001 C CNN
F 3 "" H 3600 3300 50  0001 C CNN
	1    3600 3350
	1    0    0    -1  
$EndComp
$Comp
L power:VCC #PWR0106
U 1 1 5EBBAAFD
P 6600 3250
F 0 "#PWR0106" H 6600 3100 50  0001 C CNN
F 1 "VCC" H 6617 3423 50  0000 C CNN
F 2 "" H 6600 3250 50  0001 C CNN
F 3 "" H 6600 3250 50  0001 C CNN
	1    6600 3250
	1    0    0    -1  
$EndComp
$Comp
L Transistor_BJT:BD136 Q1
U 1 1 5EB8C0F8
P 2700 3900
F 0 "Q1" H 2892 3946 50  0000 L CNN
F 1 "BD136" H 2892 3855 50  0000 L CNN
F 2 "Package_TO_SOT_THT:TO-126-3_Vertical" H 2900 3825 50  0001 L CIN
F 3 "http://www.st.com/internet/com/TECHNICAL_RESOURCES/TECHNICAL_LITERATURE/DATASHEET/CD00001225.pdf" H 2700 3900 50  0001 L CNN
	1    2700 3900
	1    0    0    -1  
$EndComp
Wire Wire Line
	2800 4100 2800 4150
Wire Wire Line
	2800 4150 4000 4150
$Comp
L power:+12V #PWR0110
U 1 1 5EBA7B6D
P 2800 3550
F 0 "#PWR0110" H 2800 3400 50  0001 C CNN
F 1 "+12V" H 2815 3723 50  0000 C CNN
F 2 "" H 2800 3550 50  0001 C CNN
F 3 "" H 2800 3550 50  0001 C CNN
	1    2800 3550
	1    0    0    -1  
$EndComp
Wire Wire Line
	2800 3550 2800 3700
$Comp
L Device:R_Small_US R2
U 1 1 5EBA8741
P 2200 3900
F 0 "R2" V 2100 3950 50  0000 R CNN
F 1 "10K" V 2300 3950 50  0000 R CNN
F 2 "Resistor_SMD:R_0805_2012Metric" H 2200 3900 50  0001 C CNN
F 3 "~" H 2200 3900 50  0001 C CNN
	1    2200 3900
	0    1    1    0   
$EndComp
Wire Wire Line
	2300 3900 2500 3900
Text HLabel 1800 3900 0    50   Input ~ 0
pwm_in
Wire Wire Line
	1800 3900 2100 3900
$EndSCHEMATC
